{
  "count": 50,
  "next": "http://localhost:8000/api/activities/search/?city=1&o=score&page=2&page_size=8",
  "previous": null,
  "results": [
    {
      "id": 23,
      "title": "Curso de Comunicación",
      "category": {
        "name": "Profesional",
        "id": 1,
        "color": "#FFC971",
        "icon_default": "https://trulii-dev.s3.amazonaws.com/static/img/icon_category_profesional_default.png",
        "icon_active": "https://trulii-dev.s3.amazonaws.com/static/img/icon_category_profesional_active.png",
        "cover": "https://trulii-dev.s3.amazonaws.com/static/img/categories/cover/profesional.jpg"
      },
      "sub_category": 3,
      "pictures": [],
      "organizer": {
        "id": 3,
        "name": "Tillman Inc",
        "photo": null,
        "rating": 0.4
      },
      "published": true,
      "closest_calendar": {
        "id": 90,
        "initial_date": 1457552630000,
        "closing_sale": 1458848630000,
        "session_price": 493959,
        "duration": 0,
        "is_free": false
      }
    },
    {
      "id": 4,
      "title": "Sesiones de Derecho",
      "category": {
        "name": "Profesional",
        "id": 1,
        "color": "#FFC971",
        "icon_default": "https://trulii-dev.s3.amazonaws.com/static/img/icon_category_profesional_default.png",
        "icon_active": "https://trulii-dev.s3.amazonaws.com/static/img/icon_category_profesional_active.png",
        "cover": "https://trulii-dev.s3.amazonaws.com/static/img/categories/cover/profesional.jpg"
      },
      "sub_category": 4,
      "pictures": [],
      "organizer": {
        "id": 1,
        "name": "Lehner Ltd",
        "photo": null,
        "rating": 0
      },
      "published": true,
      "closest_calendar": {
        "id": 13,
        "initial_date": 1457525917000,
        "closing_sale": 1458821917000,
        "session_price": 576389,
        "duration": 0,
        "is_free": false
      }
    },
    {
      "id": 43,
      "title": "Sesiones de Comunicación",
      "category": {
        "name": "Profesional",
        "id": 1,
        "color": "#FFC971",
        "icon_default": "https://trulii-dev.s3.amazonaws.com/static/img/icon_category_profesional_default.png",
        "icon_active": "https://trulii-dev.s3.amazonaws.com/static/img/icon_category_profesional_active.png",
        "cover": "https://trulii-dev.s3.amazonaws.com/static/img/categories/cover/profesional.jpg"
      },
      "sub_category": 3,
      "pictures": [],
      "organizer": {
        "id": 5,
        "name": "Smitham-Will",
        "photo": null,
        "rating": 0
      },
      "published": true,
      "closest_calendar": {
        "id": 168,
        "initial_date": 1458498090000,
        "closing_sale": 1459794090000,
        "session_price": 743766,
        "duration": 0,
        "is_free": false
      }
    },
    {
      "id": 45,
      "title": "Clase de Docencia",
      "category": {
        "name": "Profesional",
        "id": 1,
        "color": "#FFC971",
        "icon_default": "https://trulii-dev.s3.amazonaws.com/static/img/icon_category_profesional_default.png",
        "icon_active": "https://trulii-dev.s3.amazonaws.com/static/img/icon_category_profesional_active.png",
        "cover": "https://trulii-dev.s3.amazonaws.com/static/img/categories/cover/profesional.jpg"
      },
      "sub_category": 5,
      "pictures": [],
      "organizer": {
        "id": 5,
        "name": "Smitham-Will",
        "photo": null,
        "rating": 0
      },
      "published": true,
      "closest_calendar": {
        "id": 174,
        "initial_date": 1457395781000,
        "closing_sale": 1458691781000,
        "session_price": 849033,
        "duration": 0,
        "is_free": false
      }
    },
    {
      "id": 13,
      "title": "Sesiones de Comunicación",
      "category": {
        "name": "Profesional",
        "id": 1,
        "color": "#FFC971",
        "icon_default": "https://trulii-dev.s3.amazonaws.com/static/img/icon_category_profesional_default.png",
        "icon_active": "https://trulii-dev.s3.amazonaws.com/static/img/icon_category_profesional_active.png",
        "cover": "https://trulii-dev.s3.amazonaws.com/static/img/categories/cover/profesional.jpg"
      },
      "sub_category": 3,
      "pictures": [],
      "organizer": {
        "id": 2,
        "name": "O'Reilly, Rowe and Hartmann",
        "photo": null,
        "rating": 0.1
      },
      "published": true,
      "closest_calendar": {
        "id": 48,
        "initial_date": 1458361224000,
        "closing_sale": 1459657224000,
        "session_price": 499605,
        "duration": 0,
        "is_free": false
      }
    },
    {
      "id": 40,
      "title": "Curso de Management",
      "category": {
        "name": "Profesional",
        "id": 1,
        "color": "#FFC971",
        "icon_default": "https://trulii-dev.s3.amazonaws.com/static/img/icon_category_profesional_default.png",
        "icon_active": "https://trulii-dev.s3.amazonaws.com/static/img/icon_category_profesional_active.png",
        "cover": "https://trulii-dev.s3.amazonaws.com/static/img/categories/cover/profesional.jpg"
      },
      "sub_category": 10,
      "pictures": [],
      "organizer": {
        "id": 4,
        "name": "Lemke LLC",
        "photo": null,
        "rating": 0.65
      },
      "published": true,
      "closest_calendar": {
        "id": 157,
        "initial_date": 1457472383000,
        "closing_sale": 1458768383000,
        "session_price": 784944,
        "duration": 0,
        "is_free": false
      }
    },
    {
      "id": 48,
      "title": "Curso de Ingeniería",
      "category": {
        "name": "Profesional",
        "id": 1,
        "color": "#FFC971",
        "icon_default": "https://trulii-dev.s3.amazonaws.com/static/img/icon_category_profesional_default.png",
        "icon_active": "https://trulii-dev.s3.amazonaws.com/static/img/icon_category_profesional_active.png",
        "cover": "https://trulii-dev.s3.amazonaws.com/static/img/categories/cover/profesional.jpg"
      },
      "sub_category": 8,
      "pictures": [],
      "organizer": {
        "id": 5,
        "name": "Smitham-Will",
        "photo": null,
        "rating": 0
      },
      "published": true,
      "closest_calendar": {
        "id": 185,
        "initial_date": 1457482044000,
        "closing_sale": 1458778044000,
        "session_price": 282647,
        "duration": 0,
        "is_free": false
      }
    },
    {
      "id": 20,
      "title": "Clase de Management",
      "category": {
        "name": "Profesional",
        "id": 1,
        "color": "#FFC971",
        "icon_default": "https://trulii-dev.s3.amazonaws.com/static/img/icon_category_profesional_default.png",
        "icon_active": "https://trulii-dev.s3.amazonaws.com/static/img/icon_category_profesional_active.png",
        "cover": "https://trulii-dev.s3.amazonaws.com/static/img/categories/cover/profesional.jpg"
      },
      "sub_category": 10,
      "pictures": [],
      "organizer": {
        "id": 2,
        "name": "O'Reilly, Rowe and Hartmann",
        "photo": null,
        "rating": 0.1
      },
      "published": true,
      "closest_calendar": {
        "id": 75,
        "initial_date": 1457416747000,
        "closing_sale": 1458712747000,
        "session_price": 362408,
        "duration": 0,
        "is_free": false
      }
    }
  ]
}
