{
	"count": 128,
	"next": "http://localhost:8000/api/students/4/orders/?page=2&pageSize=10",
	"previous": null,
	"results": [{
		"id": 7,
		"student": {
			"id": 4,
			"photo": null,
			"user": {
				"first_name": "Jaylin",
				"last_name": "Lehner",
				"email": "xbrakus@ortiztorp.com"
			},
			"gender": 1,
			"user_type": "S",
			"birth_date": 991300230000.0,
			"telephone": null,
			"city": 1,
			"referrer_code": "jaylinl1",
			"verified_email": false
		},
		"amount": 373691.0,
		"status": "Pendiente",
		"activity": {
			"id": 1,
			"name": "Clase de Bailes de Salón"
		},
		"created_at": 1466034881000.0,
		"calendar_initial_date": 1466747921000.0,
		"fee": 0.180936000070026,
		"is_free": false,
		"total": 373691.0,
		"total_without_coupon": 373691.0
	}, {
		"id": 11,
		"student": {
			"id": 4,
			"photo": null,
			"user": {
				"first_name": "Jaylin",
				"last_name": "Lehner",
				"email": "xbrakus@ortiztorp.com"
			},
			"gender": 1,
			"user_type": "S",
			"birth_date": 991300230000.0,
			"telephone": null,
			"city": 1,
			"referrer_code": "jaylinl1",
			"verified_email": false
		},
		"amount": 963761.0,
		"status": "Cancelada",
		"activity": {
			"id": 1,
			"name": "Clase de Bailes de Salón"
		},
		"created_at": 1466034881000.0,
		"calendar_initial_date": 1468139226000.0,
		"fee": 0.180936000070026,
		"is_free": true,
		"total": 963761.0,
		"total_without_coupon": 963761.0
	}, {
		"id": 15,
		"student": {
			"id": 4,
			"photo": null,
			"user": {
				"first_name": "Jaylin",
				"last_name": "Lehner",
				"email": "xbrakus@ortiztorp.com"
			},
			"gender": 1,
			"user_type": "S",
			"birth_date": 991300230000.0,
			"telephone": null,
			"city": 1,
			"referrer_code": "jaylinl1",
			"verified_email": false
		},
		"amount": 65658.0,
		"status": "Pendiente",
		"activity": {
			"id": 2,
			"name": "Taller de Ballet"
		},
		"created_at": 1466034881000.0,
		"calendar_initial_date": 1468336681000.0,
		"fee": 0.180936000070026,
		"is_free": true,
		"total": 65658.0,
		"total_without_coupon": 65658.0
	}, {
		"id": 23,
		"student": {
			"id": 4,
			"photo": null,
			"user": {
				"first_name": "Jaylin",
				"last_name": "Lehner",
				"email": "xbrakus@ortiztorp.com"
			},
			"gender": 1,
			"user_type": "S",
			"birth_date": 991300230000.0,
			"telephone": null,
			"city": 1,
			"referrer_code": "jaylinl1",
			"verified_email": false
		},
		"amount": 607966.0,
		"status": "Aprobada",
		"activity": {
			"id": 2,
			"name": "Taller de Ballet"
		},
		"created_at": 1466034881000.0,
		"calendar_initial_date": 1467677306000.0,
		"fee": 0.180936000070026,
		"is_free": false,
		"total": 607966.0,
		"total_without_coupon": 607966.0
	}, {
		"id": 27,
		"student": {
			"id": 4,
			"photo": null,
			"user": {
				"first_name": "Jaylin",
				"last_name": "Lehner",
				"email": "xbrakus@ortiztorp.com"
			},
			"gender": 1,
			"user_type": "S",
			"birth_date": 991300230000.0,
			"telephone": null,
			"city": 1,
			"referrer_code": "jaylinl1",
			"verified_email": false
		},
		"amount": 557590.0,
		"status": "Pendiente",
		"activity": {
			"id": 2,
			"name": "Taller de Ballet"
		},
		"created_at": 1466034882000.0,
		"calendar_initial_date": 1467469641000.0,
		"fee": 0.180936000070026,
		"is_free": false,
		"total": 557590.0,
		"total_without_coupon": 557590.0
	}, {
		"id": 31,
		"student": {
			"id": 4,
			"photo": null,
			"user": {
				"first_name": "Jaylin",
				"last_name": "Lehner",
				"email": "xbrakus@ortiztorp.com"
			},
			"gender": 1,
			"user_type": "S",
			"birth_date": 991300230000.0,
			"telephone": null,
			"city": 1,
			"referrer_code": "jaylinl1",
			"verified_email": false
		},
		"amount": 525353.0,
		"status": "Aprobada",
		"activity": {
			"id": 3,
			"name": "Sesiones de Contemporáneo"
		},
		"created_at": 1466034882000.0,
		"calendar_initial_date": 1467852016000.0,
		"fee": 0.180936000070026,
		"is_free": false,
		"total": 525353.0,
		"total_without_coupon": 525353.0
	}, {
		"id": 39,
		"student": {
			"id": 4,
			"photo": null,
			"user": {
				"first_name": "Jaylin",
				"last_name": "Lehner",
				"email": "xbrakus@ortiztorp.com"
			},
			"gender": 1,
			"user_type": "S",
			"birth_date": 991300230000.0,
			"telephone": null,
			"city": 1,
			"referrer_code": "jaylinl1",
			"verified_email": false
		},
		"amount": 396371.0,
		"status": "Pendiente",
		"activity": {
			"id": 3,
			"name": "Sesiones de Contemporáneo"
		},
		"created_at": 1466034882000.0,
		"calendar_initial_date": 1468400448000.0,
		"fee": 0.180936000070026,
		"is_free": false,
		"total": 396371.0,
		"total_without_coupon": 396371.0
	}, {
		"id": 43,
		"student": {
			"id": 4,
			"photo": null,
			"user": {
				"first_name": "Jaylin",
				"last_name": "Lehner",
				"email": "xbrakus@ortiztorp.com"
			},
			"gender": 1,
			"user_type": "S",
			"birth_date": 991300230000.0,
			"telephone": null,
			"city": 1,
			"referrer_code": "jaylinl1",
			"verified_email": false
		},
		"amount": 984469.0,
		"status": "Pendiente",
		"activity": {
			"id": 3,
			"name": "Sesiones de Contemporáneo"
		},
		"created_at": 1466034882000.0,
		"calendar_initial_date": 1467201323000.0,
		"fee": 0.180936000070026,
		"is_free": false,
		"total": 984469.0,
		"total_without_coupon": 984469.0
	}, {
		"id": 48,
		"student": {
			"id": 4,
			"photo": null,
			"user": {
				"first_name": "Jaylin",
				"last_name": "Lehner",
				"email": "xbrakus@ortiztorp.com"
			},
			"gender": 1,
			"user_type": "S",
			"birth_date": 991300230000.0,
			"telephone": null,
			"city": 1,
			"referrer_code": "jaylinl1",
			"verified_email": false
		},
		"amount": 138063.0,
		"status": "Cancelada",
		"activity": {
			"id": 4,
			"name": "Taller de Exótico"
		},
		"created_at": 1466034882000.0,
		"calendar_initial_date": 1467055124000.0,
		"fee": 0.180936000070026,
		"is_free": false,
		"total": 138063.0,
		"total_without_coupon": 138063.0
	}, {
		"id": 53,
		"student": {
			"id": 4,
			"photo": null,
			"user": {
				"first_name": "Jaylin",
				"last_name": "Lehner",
				"email": "xbrakus@ortiztorp.com"
			},
			"gender": 1,
			"user_type": "S",
			"birth_date": 991300230000.0,
			"telephone": null,
			"city": 1,
			"referrer_code": "jaylinl1",
			"verified_email": false
		},
		"amount": 92579.0,
		"status": "Cancelada",
		"activity": {
			"id": 4,
			"name": "Taller de Exótico"
		},
		"created_at": 1466034883000.0,
		"calendar_initial_date": 1467346128000.0,
		"fee": 0.180936000070026,
		"is_free": false,
		"total": 92579.0,
		"total_without_coupon": 92579.0
	}, {
		"id": 57,
		"student": {
			"id": 4,
			"photo": null,
			"user": {
				"first_name": "Jaylin",
				"last_name": "Lehner",
				"email": "xbrakus@ortiztorp.com"
			},
			"gender": 1,
			"user_type": "S",
			"birth_date": 991300230000.0,
			"telephone": null,
			"city": 1,
			"referrer_code": "jaylinl1",
			"verified_email": false
		},
		"amount": 901193.0,
		"status": "Aprobada",
		"activity": {
			"id": 4,
			"name": "Taller de Exótico"
		},
		"created_at": 1466034883000.0,
		"calendar_initial_date": 1467561516000.0,
		"fee": 0.180936000070026,
		"is_free": false,
		"total": 901193.0,
		"total_without_coupon": 901193.0
	}, {
		"id": 64,
		"student": {
			"id": 4,
			"photo": null,
			"user": {
				"first_name": "Jaylin",
				"last_name": "Lehner",
				"email": "xbrakus@ortiztorp.com"
			},
			"gender": 1,
			"user_type": "S",
			"birth_date": 991300230000.0,
			"telephone": null,
			"city": 1,
			"referrer_code": "jaylinl1",
			"verified_email": false
		},
		"amount": 644184.0,
		"status": "Declinada",
		"activity": {
			"id": 4,
			"name": "Taller de Exótico"
		},
		"created_at": 1466034883000.0,
		"calendar_initial_date": 1466126959000.0,
		"fee": 0.180936000070026,
		"is_free": false,
		"total": 644184.0,
		"total_without_coupon": 644184.0
	}, {
		"id": 71,
		"student": {
			"id": 4,
			"photo": null,
			"user": {
				"first_name": "Jaylin",
				"last_name": "Lehner",
				"email": "xbrakus@ortiztorp.com"
			},
			"gender": 1,
			"user_type": "S",
			"birth_date": 991300230000.0,
			"telephone": null,
			"city": 1,
			"referrer_code": "jaylinl1",
			"verified_email": false
		},
		"amount": 283084.0,
		"status": "Declinada",
		"activity": {
			"id": 5,
			"name": "Sesiones de Folklórico"
		},
		"created_at": 1466034883000.0,
		"calendar_initial_date": 1468442265000.0,
		"fee": 0.180936000070026,
		"is_free": true,
		"total": 283084.0,
		"total_without_coupon": 283084.0
	}, {
		"id": 75,
		"student": {
			"id": 4,
			"photo": null,
			"user": {
				"first_name": "Jaylin",
				"last_name": "Lehner",
				"email": "xbrakus@ortiztorp.com"
			},
			"gender": 1,
			"user_type": "S",
			"birth_date": 991300230000.0,
			"telephone": null,
			"city": 1,
			"referrer_code": "jaylinl1",
			"verified_email": false
		},
		"amount": 52172.0,
		"status": "Pendiente",
		"activity": {
			"id": 5,
			"name": "Sesiones de Folklórico"
		},
		"created_at": 1466034883000.0,
		"calendar_initial_date": 1466057074000.0,
		"fee": 0.180936000070026,
		"is_free": false,
		"total": 52172.0,
		"total_without_coupon": 52172.0
	}, {
		"id": 83,
		"student": {
			"id": 4,
			"photo": null,
			"user": {
				"first_name": "Jaylin",
				"last_name": "Lehner",
				"email": "xbrakus@ortiztorp.com"
			},
			"gender": 1,
			"user_type": "S",
			"birth_date": 991300230000.0,
			"telephone": null,
			"city": 1,
			"referrer_code": "jaylinl1",
			"verified_email": false
		},
		"amount": 911435.0,
		"status": "Cancelada",
		"activity": {
			"id": 6,
			"name": "Sesiones de Latinas"
		},
		"created_at": 1466034883000.0,
		"calendar_initial_date": 1468101193000.0,
		"fee": 0.180936000070026,
		"is_free": false,
		"total": 911435.0,
		"total_without_coupon": 911435.0
	}, {
		"id": 87,
		"student": {
			"id": 4,
			"photo": null,
			"user": {
				"first_name": "Jaylin",
				"last_name": "Lehner",
				"email": "xbrakus@ortiztorp.com"
			},
			"gender": 1,
			"user_type": "S",
			"birth_date": 991300230000.0,
			"telephone": null,
			"city": 1,
			"referrer_code": "jaylinl1",
			"verified_email": false
		},
		"amount": 645860.0,
		"status": "Aprobada",
		"activity": {
			"id": 6,
			"name": "Sesiones de Latinas"
		},
		"created_at": 1466034884000.0,
		"calendar_initial_date": 1466782938000.0,
		"fee": 0.180936000070026,
		"is_free": false,
		"total": 645860.0,
		"total_without_coupon": 645860.0
	}, {
		"id": 94,
		"student": {
			"id": 4,
			"photo": null,
			"user": {
				"first_name": "Jaylin",
				"last_name": "Lehner",
				"email": "xbrakus@ortiztorp.com"
			},
			"gender": 1,
			"user_type": "S",
			"birth_date": 991300230000.0,
			"telephone": null,
			"city": 1,
			"referrer_code": "jaylinl1",
			"verified_email": false
		},
		"amount": 487702.0,
		"status": "Aprobada",
		"activity": {
			"id": 6,
			"name": "Sesiones de Latinas"
		},
		"created_at": 1466034884000.0,
		"calendar_initial_date": 1467045936000.0,
		"fee": 0.180936000070026,
		"is_free": true,
		"total": 487702.0,
		"total_without_coupon": 487702.0
	}, {
		"id": 99,
		"student": {
			"id": 4,
			"photo": null,
			"user": {
				"first_name": "Jaylin",
				"last_name": "Lehner",
				"email": "xbrakus@ortiztorp.com"
			},
			"gender": 1,
			"user_type": "S",
			"birth_date": 991300230000.0,
			"telephone": null,
			"city": 1,
			"referrer_code": "jaylinl1",
			"verified_email": false
		},
		"amount": 353099.0,
		"status": "Declinada",
		"activity": {
			"id": 7,
			"name": "Curso de Oriental"
		},
		"created_at": 1466034884000.0,
		"calendar_initial_date": 1466692580000.0,
		"fee": 0.180936000070026,
		"is_free": false,
		"total": 353099.0,
		"total_without_coupon": 353099.0
	}, {
		"id": 103,
		"student": {
			"id": 4,
			"photo": null,
			"user": {
				"first_name": "Jaylin",
				"last_name": "Lehner",
				"email": "xbrakus@ortiztorp.com"
			},
			"gender": 1,
			"user_type": "S",
			"birth_date": 991300230000.0,
			"telephone": null,
			"city": 1,
			"referrer_code": "jaylinl1",
			"verified_email": false
		},
		"amount": 430890.0,
		"status": "Cancelada",
		"activity": {
			"id": 7,
			"name": "Curso de Oriental"
		},
		"created_at": 1466034884000.0,
		"calendar_initial_date": 1468356333000.0,
		"fee": 0.180936000070026,
		"is_free": false,
		"total": 430890.0,
		"total_without_coupon": 430890.0
	}, {
		"id": 107,
		"student": {
			"id": 4,
			"photo": null,
			"user": {
				"first_name": "Jaylin",
				"last_name": "Lehner",
				"email": "xbrakus@ortiztorp.com"
			},
			"gender": 1,
			"user_type": "S",
			"birth_date": 991300230000.0,
			"telephone": null,
			"city": 1,
			"referrer_code": "jaylinl1",
			"verified_email": false
		},
		"amount": 973862.0,
		"status": "Aprobada",
		"activity": {
			"id": 7,
			"name": "Curso de Oriental"
		},
		"created_at": 1466034884000.0,
		"calendar_initial_date": 1467639636000.0,
		"fee": 0.180936000070026,
		"is_free": false,
		"total": 973862.0,
		"total_without_coupon": 973862.0
	}, {
		"id": 112,
		"student": {
			"id": 4,
			"photo": null,
			"user": {
				"first_name": "Jaylin",
				"last_name": "Lehner",
				"email": "xbrakus@ortiztorp.com"
			},
			"gender": 1,
			"user_type": "S",
			"birth_date": 991300230000.0,
			"telephone": null,
			"city": 1,
			"referrer_code": "jaylinl1",
			"verified_email": false
		},
		"amount": 614877.0,
		"status": "Aprobada",
		"activity": {
			"id": 8,
			"name": "Sesiones de Step"
		},
		"created_at": 1466034884000.0,
		"calendar_initial_date": 1468139792000.0,
		"fee": 0.180936000070026,
		"is_free": true,
		"total": 614877.0,
		"total_without_coupon": 614877.0
	}, {
		"id": 116,
		"student": {
			"id": 4,
			"photo": null,
			"user": {
				"first_name": "Jaylin",
				"last_name": "Lehner",
				"email": "xbrakus@ortiztorp.com"
			},
			"gender": 1,
			"user_type": "S",
			"birth_date": 991300230000.0,
			"telephone": null,
			"city": 1,
			"referrer_code": "jaylinl1",
			"verified_email": false
		},
		"amount": 102999.0,
		"status": "Aprobada",
		"activity": {
			"id": 8,
			"name": "Sesiones de Step"
		},
		"created_at": 1466034885000.0,
		"calendar_initial_date": 1467459195000.0,
		"fee": 0.180936000070026,
		"is_free": false,
		"total": 102999.0,
		"total_without_coupon": 102999.0
	}, {
		"id": 121,
		"student": {
			"id": 4,
			"photo": null,
			"user": {
				"first_name": "Jaylin",
				"last_name": "Lehner",
				"email": "xbrakus@ortiztorp.com"
			},
			"gender": 1,
			"user_type": "S",
			"birth_date": 991300230000.0,
			"telephone": null,
			"city": 1,
			"referrer_code": "jaylinl1",
			"verified_email": false
		},
		"amount": 202638.0,
		"status": "Aprobada",
		"activity": {
			"id": 8,
			"name": "Sesiones de Step"
		},
		"created_at": 1466034885000.0,
		"calendar_initial_date": 1467758994000.0,
		"fee": 0.180936000070026,
		"is_free": false,
		"total": 202638.0,
		"total_without_coupon": 202638.0
	}, {
		"id": 129,
		"student": {
			"id": 4,
			"photo": null,
			"user": {
				"first_name": "Jaylin",
				"last_name": "Lehner",
				"email": "xbrakus@ortiztorp.com"
			},
			"gender": 1,
			"user_type": "S",
			"birth_date": 991300230000.0,
			"telephone": null,
			"city": 1,
			"referrer_code": "jaylinl1",
			"verified_email": false
		},
		"amount": 682789.0,
		"status": "Aprobada",
		"activity": {
			"id": 8,
			"name": "Sesiones de Step"
		},
		"created_at": 1466034885000.0,
		"calendar_initial_date": 1466055978000.0,
		"fee": 0.180936000070026,
		"is_free": false,
		"total": 682789.0,
		"total_without_coupon": 682789.0
	}, {
		"id": 137,
		"student": {
			"id": 4,
			"photo": null,
			"user": {
				"first_name": "Jaylin",
				"last_name": "Lehner",
				"email": "xbrakus@ortiztorp.com"
			},
			"gender": 1,
			"user_type": "S",
			"birth_date": 991300230000.0,
			"telephone": null,
			"city": 1,
			"referrer_code": "jaylinl1",
			"verified_email": false
		},
		"amount": 420490.0,
		"status": "Cancelada",
		"activity": {
			"id": 9,
			"name": "Curso de Urbano"
		},
		"created_at": 1466034885000.0,
		"calendar_initial_date": 1467690035000.0,
		"fee": 0.180936000070026,
		"is_free": false,
		"total": 420490.0,
		"total_without_coupon": 420490.0
	}]
}